…
``` r
allometriesdb <- allometries()
allometriesdb
#>  Access to the LFC allometries database.
#>  laboratoriforestal.creaf.cat
#> 
#>  Use allometries_get_data to access the tables.
#>  Use allometries_calculate to calculate new values based on the allometries.
#>  Use allometries_describe_var to get the information available on the variables.
#>  See vignette('tables_and_variables', package = 'lfcdata') to learn more about the tables and variables.
allometriesdb %>%
  allometries_get_data('allometries')
#> Querying table from LFC database, this can take a while...
#> Done
#> # A tibble: 9,157 x 22
#>    allometry_id allometry_level allometry_level… spatial_level spatial_level_n…
#>    <chr>        <chr>           <chr>            <chr>         <chr>           
#>  1 BRH_1427     organ           branch           county        Alt Camp        
#>  2 BH_287       organ           branch           county        Alt Camp        
#>  3 Ht_3211      tree            tree             county        Alt Camp        
#>  4 DC_2036      tree            tree             county        Alt Camp        
#>  5 GC_2609      tree            tree             county        Alt Camp        
#>  6 BH_288       organ           branch           county        Alt Camp        
#>  7 BRH_1428     tree            tree             county        Alt Camp        
#>  8 BH_289       tree            tree             county        Alt Camp        
#>  9 Ht_3212      tree            tree             county        Alt Camp        
#> 10 DC_2037      tree            tree             county        Alt Camp        
#> # … with 9,147 more rows, and 17 more variables: functional_group_level <chr>,
#> #   functional_group_level_name <chr>, dependent_var <chr>,
#> #   independent_var_1 <chr>, independent_var_2 <chr>, independent_var_3 <chr>,
#> #   equation <chr>, param_a <dbl>, param_b <dbl>, param_c <dbl>, param_d <dbl>,
#> #   special_param <chr>, cubication_shape <chr>, source <chr>, n_obs <dbl>,
#> #   r_sqr <dbl>, see <dbl>
```
…
